%YAML 1.1
%TAG !u! tag:unity3d.com,2011:
--- !u!1 &4981808291101421339
GameObject:
  m_ObjectHideFlags: 0
  m_CorrespondingSourceObject: {fileID: 0}
  m_PrefabInstance: {fileID: 0}
  m_PrefabAsset: {fileID: 0}
  serializedVersion: 6
  m_Component:
  - component: {fileID: 4981808291101421341}
  - component: {fileID: 4981808291101421338}
  - component: {fileID: 2523319844242692315}
  m_Layer: 0
  m_Name: LetterManager
  m_TagString: Untagged
  m_Icon: {fileID: 0}
  m_NavMeshLayer: 0
  m_StaticEditorFlags: 0
  m_IsActive: 1
--- !u!4 &4981808291101421341
Transform:
  m_ObjectHideFlags: 0
  m_CorrespondingSourceObject: {fileID: 0}
  m_PrefabInstance: {fileID: 0}
  m_PrefabAsset: {fileID: 0}
  m_GameObject: {fileID: 4981808291101421339}
  m_LocalRotation: {x: -0, y: -0, z: -0, w: 1}
  m_LocalPosition: {x: 740, y: 360, z: 0}
  m_LocalScale: {x: 1, y: 1, z: 1}
  m_Children: []
  m_Father: {fileID: 0}
  m_RootOrder: 0
  m_LocalEulerAnglesHint: {x: 0, y: 0, z: 0}
--- !u!114 &4981808291101421338
MonoBehaviour:
  m_ObjectHideFlags: 0
  m_CorrespondingSourceObject: {fileID: 0}
  m_PrefabInstance: {fileID: 0}
  m_PrefabAsset: {fileID: 0}
  m_GameObject: {fileID: 4981808291101421339}
  m_Enabled: 1
  m_EditorHideFlags: 0
  m_Script: {fileID: 11500000, guid: 77a1aa587035ddd449f15c88022975da, type: 3}
  m_Name: 
  m_EditorClassIdentifier: 
  letterPanel: {fileID: 0}
  letterText: {fileID: 0}
  letterData: {fileID: 0}
  capRect: {fileID: 0}
  letterRect: {fileID: 0}
  paperRect: {fileID: 0}
  maskRect: {fileID: 0}
  bottomRect: {fileID: 0}
  letterMovePos: {x: 0, y: 350, z: 0}
  letterMoveTime: 1
  paperMoveTime: 1
  capRotTime: 1
  yPos: 400
  middleYPos: 200
  paperLastMovePos: {x: 0, y: 760}
--- !u!114 &2523319844242692315
MonoBehaviour:
  m_ObjectHideFlags: 0
  m_CorrespondingSourceObject: {fileID: 0}
  m_PrefabInstance: {fileID: 0}
  m_PrefabAsset: {fileID: 0}
  m_GameObject: {fileID: 4981808291101421339}
  m_Enabled: 1
  m_EditorHideFlags: 0
  m_Script: {fileID: 11500000, guid: e751d77245bda08468c2d184661f25af, type: 3}
  m_Name: 
  m_EditorClassIdentifier: 
  jsonFile: {fileID: 0}
  stageNum: []
