%YAML 1.1
%TAG !u! tag:unity3d.com,2011:
--- !u!1045 &1
EditorBuildSettings:
  m_ObjectHideFlags: 0
  serializedVersion: 2
  m_Scenes:
  - enabled: 0
    path: 
    guid: 00000000000000000000000000000000
  - enabled: 1
    path: Assets/Scenes/GameLogo.unity
    guid: 6324772d169d36a4e92a1c76e9925e2f
  - enabled: 1
    path: Assets/Scenes/MainMenu.unity
    guid: 935cf6445a965dc4b9b36a89f0c2efca
  - enabled: 1
    path: Assets/Scenes/Cat'sRoom.unity
    guid: 5921247c0d3a3e04b90174d20f00c85c
  - enabled: 1
    path: Assets/Scenes/Gatcha.unity
    guid: ad79edd011b2399449f01e9bb6a5e97f
  - enabled: 1
    path: Assets/Scenes/Stage0 Tutorial.unity
    guid: 4e7fe309120bcbf419fdc384b8f8c9c3
  - enabled: 1
    path: Assets/Scenes/Stage1 Park.unity
    guid: 09bc940b9624eb64695650ebfdd87972
  - enabled: 1
    path: Assets/Scenes/Stage2 City.unity
    guid: 7484f73d52cb4534889dd43efe33b1e0
  - enabled: 1
    path: Assets/Scenes/Stage3 Market.unity
    guid: 0e8cc5eae2d49e848af91defcfefde8f
  - enabled: 1
    path: Assets/Scenes/Stage4 Mountain.unity
    guid: 2301c7ab22f3bad48a25b10db0faccc3
  m_configObjects: {}
