%YAML 1.1
%TAG !u! tag:unity3d.com,2011:
--- !u!1 &7381033722147183888
GameObject:
  m_ObjectHideFlags: 0
  m_CorrespondingSourceObject: {fileID: 0}
  m_PrefabInstance: {fileID: 0}
  m_PrefabAsset: {fileID: 0}
  serializedVersion: 6
  m_Component:
  - component: {fileID: 7381033722147183891}
  - component: {fileID: 7381033722147183890}
  - component: {fileID: 7381033722147183889}
  - component: {fileID: 7381033722147183980}
  m_Layer: 0
  m_Name: AudioManager
  m_TagString: Untagged
  m_Icon: {fileID: 0}
  m_NavMeshLayer: 0
  m_StaticEditorFlags: 0
  m_IsActive: 1
--- !u!4 &7381033722147183891
Transform:
  m_ObjectHideFlags: 0
  m_CorrespondingSourceObject: {fileID: 0}
  m_PrefabInstance: {fileID: 0}
  m_PrefabAsset: {fileID: 0}
  m_GameObject: {fileID: 7381033722147183888}
  m_LocalRotation: {x: 0, y: 0, z: 0, w: 1}
  m_LocalPosition: {x: 0, y: 0, z: 0}
  m_LocalScale: {x: 1, y: 1, z: 1}
  m_Children: []
  m_Father: {fileID: 0}
  m_RootOrder: 0
  m_LocalEulerAnglesHint: {x: 0, y: 0, z: 0}
--- !u!114 &7381033722147183890
MonoBehaviour:
  m_ObjectHideFlags: 0
  m_CorrespondingSourceObject: {fileID: 0}
  m_PrefabInstance: {fileID: 0}
  m_PrefabAsset: {fileID: 0}
  m_GameObject: {fileID: 7381033722147183888}
  m_Enabled: 1
  m_EditorHideFlags: 0
  m_Script: {fileID: 11500000, guid: eaf3ef9051c92cb44a6f9c60bd840f6f, type: 3}
  m_Name: 
  m_EditorClassIdentifier: 
  clips:
  - {fileID: 8300000, guid: 55d76f23be9078c49a346b53189b54de, type: 3}
  - {fileID: 8300000, guid: 17b446be5e77ef2498f01983aed5f329, type: 3}
  - {fileID: 8300000, guid: a083fae8520af40448e7eb8e6d64c8e3, type: 3}
  - {fileID: 8300000, guid: 5e806e388271e954bbc2518130189443, type: 3}
  - {fileID: 8300000, guid: 569dee5e6922753479d89f2deb6f2a61, type: 3}
  - {fileID: 8300000, guid: 2c0ce1061d0772546be359d4a778870f, type: 3}
  - {fileID: 8300000, guid: 2296f6a7fedca36488e3e9d0ae5844de, type: 3}
  - {fileID: 8300000, guid: 47e41af1d6bebb049badef087aad9f24, type: 3}
  - {fileID: 8300000, guid: 5d04cee86ee456d4bb07086e8c8f825e, type: 3}
  - {fileID: 8300000, guid: 2962384f1974e03468ff5a6881d629c1, type: 3}
  - {fileID: 8300000, guid: 39a72ba88e515df41a253c51e81c9175, type: 3}
  - {fileID: 8300000, guid: a312028a31820394385da9423d8dbbf1, type: 3}
  - {fileID: 8300000, guid: c720c8b9c6c704e45aa86a14545143db, type: 3}
  - {fileID: 8300000, guid: c421147da7f30834caafd8c4641f328a, type: 3}
  - {fileID: 8300000, guid: 2038fbefad966c94a9c1867fae133270, type: 3}
  - {fileID: 8300000, guid: 3b23dc893cee0c6488effd76d78e71b1, type: 3}
  - {fileID: 8300000, guid: 7d97f317ce71195449cbba3484ee7805, type: 3}
  - {fileID: 8300000, guid: a8795f67898347a4ca51b0634cd07a9a, type: 3}
  - {fileID: 8300000, guid: 01c08683a0be09c4a82f66801b0dfda4, type: 3}
  - {fileID: 8300000, guid: 409ca436dcd98e244ab656457f7c59b5, type: 3}
  - {fileID: 8300000, guid: a78e633128e6af54ca1b70ecb95e29f1, type: 3}
  - {fileID: 8300000, guid: 800d9f33b82e6884eab69f796b6ce8cb, type: 3}
  - {fileID: 8300000, guid: e33c251c54ff0bf4e94522c644760525, type: 3}
  - {fileID: 8300000, guid: a71c462218907104082d50b7651c122b, type: 3}
  - {fileID: 8300000, guid: 49cbff691652fec4b91924194913cb89, type: 3}
  - {fileID: 8300000, guid: 8541bc0b2748b2d46b485a43991424a8, type: 3}
  - {fileID: 8300000, guid: 4cc1bb4b126aecd4e87a60affdde42bc, type: 3}
  - {fileID: 8300000, guid: 4ff97fd251cc52541b486895446ef0b3, type: 3}
  - {fileID: 8300000, guid: e6b550af214f79f428d700283e25e37b, type: 3}
  - {fileID: 8300000, guid: 026b813efc5fc574b85723d56ab83e01, type: 3}
  - {fileID: 8300000, guid: 5c869054ed41f34459c3bd7f9a207a7e, type: 3}
  - {fileID: 8300000, guid: ac488751300c0ba4db1861735f0bc241, type: 3}
  - {fileID: 8300000, guid: 394679e0ae576ce4eabcf6eaaf534003, type: 3}
  - {fileID: 8300000, guid: 3d62d1afdd525ea43bec572d971bfb00, type: 3}
  - {fileID: 8300000, guid: 2b1da0b27c7d1b64283e46ebcd2b8b8e, type: 3}
  - {fileID: 8300000, guid: f09d29e27475d0d4aa40b0230b5f7644, type: 3}
  - {fileID: 8300000, guid: e921cbe476eec2f449b36005f13a299d, type: 3}
  - {fileID: 8300000, guid: a45dbbe2e89338f46821a2448ece7a6d, type: 3}
  - {fileID: 8300000, guid: 3a9c250a7a4079b45986a05bdecac588, type: 3}
  - {fileID: 8300000, guid: 469cab3a08e08fc49a8248d64b70dc3a, type: 3}
  - {fileID: 8300000, guid: 4f0d90dab6026eb4ba6dbbd9c947acd3, type: 3}
  - {fileID: 8300000, guid: eb9e65dead91dc043b10d0a53e455a52, type: 3}
  - {fileID: 8300000, guid: a9bc70b0e4187974a839d7f682d12bbb, type: 3}
  - {fileID: 8300000, guid: cef6ab9ba4d96cd47a59bf117b56e384, type: 3}
  - {fileID: 8300000, guid: 6f29af718d28bec4ebbc8e1ec26daafa, type: 3}
  - {fileID: 8300000, guid: bae1e19e53d86e54da52eb965d80b3e5, type: 3}
  - {fileID: 8300000, guid: c8cbf8d25fd6fec4bb272ba631748d78, type: 3}
  - {fileID: 8300000, guid: 40c7bcfb83fe8d54b806b1bd713bf4c6, type: 3}
  - {fileID: 8300000, guid: fa386df7edf97f4478223e5129328c57, type: 3}
  - {fileID: 8300000, guid: 162b0dc67102b8a49976e9254da92b48, type: 3}
  - {fileID: 8300000, guid: 16d4c5840135dfd42aac496b4ce6830e, type: 3}
  - {fileID: 8300000, guid: dc7c6569575b06e479d1187b6b0097d2, type: 3}
  - {fileID: 8300000, guid: a500e91e4691e18448dd4a31b6c28299, type: 3}
  audioPrefab: {fileID: 2927217035073139939, guid: d28c9aa6f3c0853489b5ad9086b3efee,
    type: 3}
--- !u!82 &7381033722147183889
AudioSource:
  m_ObjectHideFlags: 0
  m_CorrespondingSourceObject: {fileID: 0}
  m_PrefabInstance: {fileID: 0}
  m_PrefabAsset: {fileID: 0}
  m_GameObject: {fileID: 7381033722147183888}
  m_Enabled: 1
  serializedVersion: 4
  OutputAudioMixerGroup: {fileID: 243248488338211780, guid: 781ec6cc62d23e346a0acc832bb0f128,
    type: 2}
  m_audioClip: {fileID: 8300000, guid: 86e8318cc610b414aa35e54de1ffd177, type: 3}
  m_PlayOnAwake: 1
  m_Volume: 1
  m_Pitch: 1
  Loop: 1
  Mute: 0
  Spatialize: 0
  SpatializePostEffects: 0
  Priority: 128
  DopplerLevel: 1
  MinDistance: 1
  MaxDistance: 500
  Pan2D: 0
  rolloffMode: 0
  BypassEffects: 0
  BypassListenerEffects: 0
  BypassReverbZones: 0
  rolloffCustomCurve:
    serializedVersion: 2
    m_Curve:
    - serializedVersion: 3
      time: 0
      value: 1
      inSlope: 0
      outSlope: 0
      tangentMode: 0
      weightedMode: 0
      inWeight: 0.33333334
      outWeight: 0.33333334
    - serializedVersion: 3
      time: 1
      value: 0
      inSlope: 0
      outSlope: 0
      tangentMode: 0
      weightedMode: 0
      inWeight: 0.33333334
      outWeight: 0.33333334
    m_PreInfinity: 2
    m_PostInfinity: 2
    m_RotationOrder: 4
  panLevelCustomCurve:
    serializedVersion: 2
    m_Curve:
    - serializedVersion: 3
      time: 0
      value: 0
      inSlope: 0
      outSlope: 0
      tangentMode: 0
      weightedMode: 0
      inWeight: 0.33333334
      outWeight: 0.33333334
    m_PreInfinity: 2
    m_PostInfinity: 2
    m_RotationOrder: 4
  spreadCustomCurve:
    serializedVersion: 2
    m_Curve:
    - serializedVersion: 3
      time: 0
      value: 0
      inSlope: 0
      outSlope: 0
      tangentMode: 0
      weightedMode: 0
      inWeight: 0.33333334
      outWeight: 0.33333334
    m_PreInfinity: 2
    m_PostInfinity: 2
    m_RotationOrder: 4
  reverbZoneMixCustomCurve:
    serializedVersion: 2
    m_Curve:
    - serializedVersion: 3
      time: 0
      value: 1
      inSlope: 0
      outSlope: 0
      tangentMode: 0
      weightedMode: 0
      inWeight: 0.33333334
      outWeight: 0.33333334
    m_PreInfinity: 2
    m_PostInfinity: 2
    m_RotationOrder: 4
--- !u!114 &7381033722147183980
MonoBehaviour:
  m_ObjectHideFlags: 0
  m_CorrespondingSourceObject: {fileID: 0}
  m_PrefabInstance: {fileID: 0}
  m_PrefabAsset: {fileID: 0}
  m_GameObject: {fileID: 7381033722147183888}
  m_Enabled: 1
  m_EditorHideFlags: 0
  m_Script: {fileID: 11500000, guid: 07cb2a86a13c4ce44b5ce235c38314c8, type: 3}
  m_Name: 
  m_EditorClassIdentifier: 
