%YAML 1.1
%TAG !u! tag:unity3d.com,2011:
--- !u!687078895 &4343727234628468602
SpriteAtlas:
  m_ObjectHideFlags: 0
  m_CorrespondingSourceObject: {fileID: 0}
  m_PrefabInstance: {fileID: 0}
  m_PrefabAsset: {fileID: 0}
  m_Name: FireAtlas
  m_EditorData:
    serializedVersion: 2
    textureSettings:
      serializedVersion: 2
      anisoLevel: 1
      compressionQuality: 50
      maxTextureSize: 2048
      textureCompression: 0
      filterMode: 1
      generateMipMaps: 0
      readable: 0
      crunchedCompression: 0
      sRGB: 1
    platformSettings: []
    packingSettings:
      serializedVersion: 2
      padding: 4
      blockOffset: 1
      allowAlphaSplitting: 0
      enableRotation: 1
      enableTightPacking: 1
    variantMultiplier: 1
    packables:
    - {fileID: 2119258838000923251, guid: 6c6950af87d7809488b880ac4feb9009, type: 3}
    - {fileID: -1878106059201171330, guid: 6c6950af87d7809488b880ac4feb9009, type: 3}
    - {fileID: 8561790028002867046, guid: 5a3b8f5791edbfd418e025b889528841, type: 3}
    - {fileID: -910543950083230261, guid: 5a3b8f5791edbfd418e025b889528841, type: 3}
    totalSpriteSurfaceArea: 23438
    bindAsDefault: 1
  m_MasterAtlas: {fileID: 0}
  m_PackedSprites:
  - {fileID: 8561790028002867046, guid: 5a3b8f5791edbfd418e025b889528841, type: 3}
  - {fileID: -910543950083230261, guid: 5a3b8f5791edbfd418e025b889528841, type: 3}
  - {fileID: -1878106059201171330, guid: 6c6950af87d7809488b880ac4feb9009, type: 3}
  - {fileID: 2119258838000923251, guid: 6c6950af87d7809488b880ac4feb9009, type: 3}
  m_PackedSpriteNamesToIndex:
  - Stage4_Animals_21
  - Stage4_Animals_22
  - Stage4_Fire_1
  - Stage4_Fire_0
  m_Tag: FireAtlas
  m_IsVariant: 0
