%YAML 1.1
%TAG !u! tag:unity3d.com,2011:
--- !u!1 &1043596145008536317
GameObject:
  m_ObjectHideFlags: 0
  m_CorrespondingSourceObject: {fileID: 0}
  m_PrefabInstance: {fileID: 0}
  m_PrefabAsset: {fileID: 0}
  serializedVersion: 6
  m_Component:
  - component: {fileID: 1043596145008536316}
  - component: {fileID: 1043596145008536318}
  - component: {fileID: 1043596145008536319}
  - component: {fileID: 1043596145008536313}
  m_Layer: 0
  m_Name: JsonManger
  m_TagString: Untagged
  m_Icon: {fileID: 0}
  m_NavMeshLayer: 0
  m_StaticEditorFlags: 0
  m_IsActive: 1
--- !u!4 &1043596145008536316
Transform:
  m_ObjectHideFlags: 0
  m_CorrespondingSourceObject: {fileID: 0}
  m_PrefabInstance: {fileID: 0}
  m_PrefabAsset: {fileID: 0}
  m_GameObject: {fileID: 1043596145008536317}
  m_LocalRotation: {x: 0, y: 0, z: 0, w: 1}
  m_LocalPosition: {x: 0, y: 0, z: 0}
  m_LocalScale: {x: 1, y: 1, z: 1}
  m_Children: []
  m_Father: {fileID: 0}
  m_RootOrder: 0
  m_LocalEulerAnglesHint: {x: 0, y: 0, z: 0}
--- !u!114 &1043596145008536318
MonoBehaviour:
  m_ObjectHideFlags: 0
  m_CorrespondingSourceObject: {fileID: 0}
  m_PrefabInstance: {fileID: 0}
  m_PrefabAsset: {fileID: 0}
  m_GameObject: {fileID: 1043596145008536317}
  m_Enabled: 1
  m_EditorHideFlags: 0
  m_Script: {fileID: 11500000, guid: 6a608a723b2e1714f975980859bffdb9, type: 3}
  m_Name: 
  m_EditorClassIdentifier: 
  jsonFile: {fileID: 4900000, guid: 22fab354f73dae949af12bd34d3a7fa1, type: 3}
--- !u!114 &1043596145008536319
MonoBehaviour:
  m_ObjectHideFlags: 0
  m_CorrespondingSourceObject: {fileID: 0}
  m_PrefabInstance: {fileID: 0}
  m_PrefabAsset: {fileID: 0}
  m_GameObject: {fileID: 1043596145008536317}
  m_Enabled: 1
  m_EditorHideFlags: 0
  m_Script: {fileID: 11500000, guid: e3b781da026bdac4ca9c2837483d682d, type: 3}
  m_Name: 
  m_EditorClassIdentifier: 
  jsonFile: {fileID: 4900000, guid: ff712a0956033824ebefe1683a3f4fd3, type: 3}
--- !u!114 &1043596145008536313
MonoBehaviour:
  m_ObjectHideFlags: 0
  m_CorrespondingSourceObject: {fileID: 0}
  m_PrefabInstance: {fileID: 0}
  m_PrefabAsset: {fileID: 0}
  m_GameObject: {fileID: 1043596145008536317}
  m_Enabled: 1
  m_EditorHideFlags: 0
  m_Script: {fileID: 11500000, guid: eb620c1ce64899449bf6de7af990d736, type: 3}
  m_Name: 
  m_EditorClassIdentifier: 
  jsonFile: {fileID: 4900000, guid: fb8f6f8c705a67a4292c787265b8acd2, type: 3}
