%YAML 1.1
%TAG !u! tag:unity3d.com,2011:
--- !u!1001 &7550049491195324058
PrefabInstance:
  m_ObjectHideFlags: 0
  serializedVersion: 2
  m_Modification:
    m_TransformParent: {fileID: 0}
    m_Modifications:
    - target: {fileID: 5811136604204217152, guid: 2ec4ddd78a05e9d4fa18b37ed7f23219,
        type: 3}
      propertyPath: m_Name
      value: WhiteCat
      objectReference: {fileID: 0}
    - target: {fileID: 5811136604204217153, guid: 2ec4ddd78a05e9d4fa18b37ed7f23219,
        type: 3}
      propertyPath: m_LocalPosition.x
      value: -20.32124
      objectReference: {fileID: 0}
    - target: {fileID: 5811136604204217153, guid: 2ec4ddd78a05e9d4fa18b37ed7f23219,
        type: 3}
      propertyPath: m_LocalPosition.y
      value: 0.82634735
      objectReference: {fileID: 0}
    - target: {fileID: 5811136604204217153, guid: 2ec4ddd78a05e9d4fa18b37ed7f23219,
        type: 3}
      propertyPath: m_LocalPosition.z
      value: -0.38378906
      objectReference: {fileID: 0}
    - target: {fileID: 5811136604204217153, guid: 2ec4ddd78a05e9d4fa18b37ed7f23219,
        type: 3}
      propertyPath: m_LocalRotation.x
      value: -0
      objectReference: {fileID: 0}
    - target: {fileID: 5811136604204217153, guid: 2ec4ddd78a05e9d4fa18b37ed7f23219,
        type: 3}
      propertyPath: m_LocalRotation.y
      value: -0
      objectReference: {fileID: 0}
    - target: {fileID: 5811136604204217153, guid: 2ec4ddd78a05e9d4fa18b37ed7f23219,
        type: 3}
      propertyPath: m_LocalRotation.z
      value: -0
      objectReference: {fileID: 0}
    - target: {fileID: 5811136604204217153, guid: 2ec4ddd78a05e9d4fa18b37ed7f23219,
        type: 3}
      propertyPath: m_LocalRotation.w
      value: 1
      objectReference: {fileID: 0}
    - target: {fileID: 5811136604204217153, guid: 2ec4ddd78a05e9d4fa18b37ed7f23219,
        type: 3}
      propertyPath: m_RootOrder
      value: 0
      objectReference: {fileID: 0}
    - target: {fileID: 5811136604204217153, guid: 2ec4ddd78a05e9d4fa18b37ed7f23219,
        type: 3}
      propertyPath: m_LocalEulerAnglesHint.x
      value: 0
      objectReference: {fileID: 0}
    - target: {fileID: 5811136604204217153, guid: 2ec4ddd78a05e9d4fa18b37ed7f23219,
        type: 3}
      propertyPath: m_LocalEulerAnglesHint.y
      value: 0
      objectReference: {fileID: 0}
    - target: {fileID: 5811136604204217153, guid: 2ec4ddd78a05e9d4fa18b37ed7f23219,
        type: 3}
      propertyPath: m_LocalEulerAnglesHint.z
      value: 0
      objectReference: {fileID: 0}
    m_RemovedComponents: []
  m_SourcePrefab: {fileID: 100100000, guid: 2ec4ddd78a05e9d4fa18b37ed7f23219, type: 3}
