%YAML 1.1
%TAG !u! tag:unity3d.com,2011:
--- !u!58 &907221999
CircleCollider2D:
  m_ObjectHideFlags: 0
  m_CorrespondingSourceObject: {fileID: 0}
  m_PrefabInstance: {fileID: 0}
  m_PrefabAsset: {fileID: 0}
  m_GameObject: {fileID: 7671123511843904291}
  m_Enabled: 1
  m_Density: 1
  m_Material: {fileID: 0}
  m_IsTrigger: 0
  m_UsedByEffector: 0
  m_UsedByComposite: 0
  m_Offset: {x: 0, y: 0}
  serializedVersion: 2
  m_Radius: 1
--- !u!1001 &811025765907797741
PrefabInstance:
  m_ObjectHideFlags: 0
  serializedVersion: 2
  m_Modification:
    m_TransformParent: {fileID: 0}
    m_Modifications:
    - target: {fileID: 7004251443226332622, guid: 882bfc0c9873a2c4681ed39305ad4d08,
        type: 3}
      propertyPath: m_Name
      value: 6_angel_cat
      objectReference: {fileID: 0}
    - target: {fileID: 7004251443226332622, guid: 882bfc0c9873a2c4681ed39305ad4d08,
        type: 3}
      propertyPath: m_TagString
      value: hiddenCat
      objectReference: {fileID: 0}
    - target: {fileID: 2053022587829647282, guid: 882bfc0c9873a2c4681ed39305ad4d08,
        type: 3}
      propertyPath: state
      value: 1
      objectReference: {fileID: 0}
    - target: {fileID: 5850924019022143877, guid: 882bfc0c9873a2c4681ed39305ad4d08,
        type: 3}
      propertyPath: m_LocalPosition.x
      value: 0
      objectReference: {fileID: 0}
    - target: {fileID: 5850924019022143877, guid: 882bfc0c9873a2c4681ed39305ad4d08,
        type: 3}
      propertyPath: m_LocalPosition.y
      value: 10
      objectReference: {fileID: 0}
    - target: {fileID: 5850924019022143877, guid: 882bfc0c9873a2c4681ed39305ad4d08,
        type: 3}
      propertyPath: m_LocalPosition.z
      value: -3
      objectReference: {fileID: 0}
    - target: {fileID: 5850924019022143877, guid: 882bfc0c9873a2c4681ed39305ad4d08,
        type: 3}
      propertyPath: m_LocalRotation.x
      value: -0
      objectReference: {fileID: 0}
    - target: {fileID: 5850924019022143877, guid: 882bfc0c9873a2c4681ed39305ad4d08,
        type: 3}
      propertyPath: m_LocalRotation.y
      value: -0
      objectReference: {fileID: 0}
    - target: {fileID: 5850924019022143877, guid: 882bfc0c9873a2c4681ed39305ad4d08,
        type: 3}
      propertyPath: m_LocalRotation.z
      value: -0
      objectReference: {fileID: 0}
    - target: {fileID: 5850924019022143877, guid: 882bfc0c9873a2c4681ed39305ad4d08,
        type: 3}
      propertyPath: m_LocalRotation.w
      value: 1
      objectReference: {fileID: 0}
    - target: {fileID: 5850924019022143877, guid: 882bfc0c9873a2c4681ed39305ad4d08,
        type: 3}
      propertyPath: m_RootOrder
      value: 0
      objectReference: {fileID: 0}
    - target: {fileID: 5850924019022143877, guid: 882bfc0c9873a2c4681ed39305ad4d08,
        type: 3}
      propertyPath: m_LocalEulerAnglesHint.x
      value: 0
      objectReference: {fileID: 0}
    - target: {fileID: 5850924019022143877, guid: 882bfc0c9873a2c4681ed39305ad4d08,
        type: 3}
      propertyPath: m_LocalEulerAnglesHint.y
      value: 0
      objectReference: {fileID: 0}
    - target: {fileID: 5850924019022143877, guid: 882bfc0c9873a2c4681ed39305ad4d08,
        type: 3}
      propertyPath: m_LocalEulerAnglesHint.z
      value: 0
      objectReference: {fileID: 0}
    - target: {fileID: 5850924019022143877, guid: 882bfc0c9873a2c4681ed39305ad4d08,
        type: 3}
      propertyPath: m_LocalScale.x
      value: 1
      objectReference: {fileID: 0}
    - target: {fileID: 5850924019022143877, guid: 882bfc0c9873a2c4681ed39305ad4d08,
        type: 3}
      propertyPath: m_LocalScale.y
      value: 1
      objectReference: {fileID: 0}
    m_RemovedComponents: []
  m_SourcePrefab: {fileID: 100100000, guid: 882bfc0c9873a2c4681ed39305ad4d08, type: 3}
--- !u!1 &7671123511843904291 stripped
GameObject:
  m_CorrespondingSourceObject: {fileID: 7004251443226332622, guid: 882bfc0c9873a2c4681ed39305ad4d08,
    type: 3}
  m_PrefabInstance: {fileID: 811025765907797741}
  m_PrefabAsset: {fileID: 0}
