%YAML 1.1
%TAG !u! tag:unity3d.com,2011:
--- !u!1001 &1815817006968485403
PrefabInstance:
  m_ObjectHideFlags: 0
  serializedVersion: 2
  m_Modification:
    m_TransformParent: {fileID: 0}
    m_Modifications:
    - target: {fileID: 5647286811204607387, guid: 51621ef3925bc6149be3ad62e7901fcb,
        type: 3}
      propertyPath: m_Name
      value: SwagCat
      objectReference: {fileID: 0}
    - target: {fileID: 7627917611058700899, guid: 51621ef3925bc6149be3ad62e7901fcb,
        type: 3}
      propertyPath: m_LocalPosition.x
      value: -16.711239
      objectReference: {fileID: 0}
    - target: {fileID: 7627917611058700899, guid: 51621ef3925bc6149be3ad62e7901fcb,
        type: 3}
      propertyPath: m_LocalPosition.y
      value: 5.2263474
      objectReference: {fileID: 0}
    - target: {fileID: 7627917611058700899, guid: 51621ef3925bc6149be3ad62e7901fcb,
        type: 3}
      propertyPath: m_LocalPosition.z
      value: 0.30563414
      objectReference: {fileID: 0}
    - target: {fileID: 7627917611058700899, guid: 51621ef3925bc6149be3ad62e7901fcb,
        type: 3}
      propertyPath: m_LocalRotation.x
      value: -0
      objectReference: {fileID: 0}
    - target: {fileID: 7627917611058700899, guid: 51621ef3925bc6149be3ad62e7901fcb,
        type: 3}
      propertyPath: m_LocalRotation.y
      value: -0
      objectReference: {fileID: 0}
    - target: {fileID: 7627917611058700899, guid: 51621ef3925bc6149be3ad62e7901fcb,
        type: 3}
      propertyPath: m_LocalRotation.z
      value: -0
      objectReference: {fileID: 0}
    - target: {fileID: 7627917611058700899, guid: 51621ef3925bc6149be3ad62e7901fcb,
        type: 3}
      propertyPath: m_LocalRotation.w
      value: 1
      objectReference: {fileID: 0}
    - target: {fileID: 7627917611058700899, guid: 51621ef3925bc6149be3ad62e7901fcb,
        type: 3}
      propertyPath: m_RootOrder
      value: 0
      objectReference: {fileID: 0}
    - target: {fileID: 7627917611058700899, guid: 51621ef3925bc6149be3ad62e7901fcb,
        type: 3}
      propertyPath: m_LocalEulerAnglesHint.x
      value: 0
      objectReference: {fileID: 0}
    - target: {fileID: 7627917611058700899, guid: 51621ef3925bc6149be3ad62e7901fcb,
        type: 3}
      propertyPath: m_LocalEulerAnglesHint.y
      value: 0
      objectReference: {fileID: 0}
    - target: {fileID: 7627917611058700899, guid: 51621ef3925bc6149be3ad62e7901fcb,
        type: 3}
      propertyPath: m_LocalEulerAnglesHint.z
      value: 0
      objectReference: {fileID: 0}
    m_RemovedComponents: []
  m_SourcePrefab: {fileID: 100100000, guid: 51621ef3925bc6149be3ad62e7901fcb, type: 3}
